COVID-19
…
The probability of positive = 

exp(32.4 + (-1.15) * Oxygen +  0.0145	* Pulse Rate + 0.729 * Temperature)
_______
1+exp(32.4 + (-1.15) * Oxygen +  0.0145	* Pulse Rate + 0.729 * Temperature)

---
class:inverse
#Model checking

```
## # A tibble: 2,500 × 6
##    .pred_Negative .pred_Positive Oxygen PulseRate Temperature Result  
##             <dbl>          <dbl>  <dbl>     <dbl>       <dbl> <chr>   
##  1       0.999          0.000603     96        92          95 Negative
##  2       1.00           0.000235     97        56          96 Negative
##  3       0.000280       1.00         88        81         104 Positive
##  4       0.865          0.135        91        79          95 Negative
##  5       0.00209        0.998        86        85          98 Positive
##  6       0.997          0.00254      97       120          98 Negative
##  7       0.993          0.00733      96       114          98 Negative
##  8       0.0115         0.988        89       104         100 Positive
##  9       0.978          0.0222       99       128         104 Negative
## 10       0.758          0.242        91        78          96 Negative
## # … with 2,490 more rows
```
…
